^C:\USERS\КАТЕНЬКА\SOURCE\REPOS\SKLBOX1\SKLBOX1.CPP
C:\USERS\Катенька\SOURCE\REPOS\SKLBOX1\DEBUG\VC142.PDB
C:\USERS\Катенька\SOURCE\REPOS\SKLBOX1\DEBUG\VC142.IDB
C:\USERS\Катенька\SOURCE\REPOS\SKLBOX1\DEBUG\SKLBOX1.OBJ
